Data Staff

Id       Nama        Jabatan     Absen       Gaji Pokok
1        Rina        Staff        21        3620000        


Data Manager

Id       Nama        Jabatan     Absen       Gaji Pokok
